<?xml version="1.0" encoding="UTF-8" standalone="no"?>
<svg
   xmlns:dc="http://purl.org/dc/elements/1.1/"
   xmlns:cc="http://creativecommons.org/ns#"
   xmlns:rdf="http://www.w3.org/1999/02/22-rdf-syntax-ns#"
   xmlns:svg="http://www.w3.org/2000/svg"
   xmlns="http://www.w3.org/2000/svg"
   xmlns:sodipodi="http://sodipodi.sourceforge.net/DTD/sodipodi-0.dtd"
   xmlns:inkscape="http://www.inkscape.org/namespaces/inkscape"
   width="14"
   height="14"
   viewBox="0 0 14 14"
   class="feather feather-calendar"
   version="1.1"
   id="svg10"
   sodipodi:docname="calendar-resized.svg"
   inkscape:version="0.92.4 5da689c313, 2019-01-14"
   style="fill:none;stroke:currentColor;stroke-width:2;stroke-linecap:round;stroke-linejoin:round">
  <metadata
     id="metadata16">
    <rdf:RDF>
      <cc:Work
         rdf:about="">
        <dc:format>image/svg+xml</dc:format>
        <dc:type
           rdf:resource="http://purl.org/dc/dcmitype/StillImage" />
        <dc:title></dc:title>
      </cc:Work>
    </rdf:RDF>
  </metadata>
  <defs
     id="defs14" />
  <sodipodi:namedview
     pagecolor="#ffffff"
     bordercolor="#666666"
     borderopacity="1"
     objecttolerance="10"
     gridtolerance="10"
     guidetolerance="10"
     inkscape:pageopacity="0"
     inkscape:pageshadow="2"
     inkscape:window-width="1826"
     inkscape:window-height="902"
     id="namedview12"
     showgrid="false"
     inkscape:zoom="9.8333333"
     inkscape:cx="12"
     inkscape:cy="12"
     inkscape:window-x="40"
     inkscape:window-y="64"
     inkscape:window-maximized="0"
     inkscape:current-layer="svg10" />
  <path
     style="color:#000000;font-style:normal;font-variant:normal;font-weight:normal;font-stretch:normal;font-size:medium;line-height:normal;font-family:sans-serif;font-variant-ligatures:normal;font-variant-position:normal;font-variant-caps:normal;font-variant-numeric:normal;font-variant-alternates:normal;font-feature-settings:normal;text-indent:0;text-align:start;text-decoration:none;text-decoration-line:none;text-decoration-style:solid;text-decoration-color:#000000;letter-spacing:normal;word-spacing:normal;text-transform:none;writing-mode:lr-tb;direction:ltr;text-orientation:mixed;dominant-baseline:auto;baseline-shift:baseline;text-anchor:start;white-space:normal;shape-padding:0;clip-rule:nonzero;display:inline;overflow:visible;visibility:visible;opacity:1;isolation:auto;mix-blend-mode:normal;color-interpolation:sRGB;color-interpolation-filters:linearRGB;solid-color:#000000;solid-opacity:1;vector-effect:none;fill:#9e9e9e;fill-opacity:1;fill-rule:nonzero;stroke:none;stroke-width:1.27192986;stroke-linecap:butt;stroke-linejoin:miter;stroke-miterlimit:4;stroke-dasharray:none;stroke-dashoffset:0;stroke-opacity:1;color-rendering:auto;image-rendering:auto;shape-rendering:auto;text-rendering:auto;enable-background:accumulate"
     d="M 3.8143659,7.756875e-5 A 0.63602849,0.63602849 0 0 0 3.188338,0.64473728 V 1.2807022 H 1.9164082 c -1.04597323,0 -1.90789469,0.8619215 -1.90789469,1.9078946 v 2.4370374 a 0.63602849,0.63602849 0 0 0 0,0.2074337 V 12.092105 C 0.00851351,13.138079 0.87043497,14 1.9164082,14 h 8.9035088 c 1.045973,0 1.907895,-0.861921 1.907895,-1.907895 V 5.8392788 a 0.63602849,0.63602849 0 0 0 0,-0.207434 v -2.443248 c 0,-1.0459731 -0.861922,-1.9078946 -1.907895,-1.9078946 H 9.5479871 V 0.64473728 A 0.63602849,0.63602849 0 0 0 8.9020852,7.756875e-5 0.63602849,0.63602849 0 0 0 8.2760572,0.64473728 V 1.2807022 H 4.4602678 V 0.64473728 A 0.63602849,0.63602849 0 0 0 3.8143659,7.756875e-5 Z M 1.9164082,2.552632 H 3.188338 v 0.6359648 a 0.63602849,0.63602849 0 1 0 1.2719298,0 V 2.552632 h 3.8157894 v 0.6359648 a 0.63602849,0.63602849 0 1 0 1.2719299,0 V 2.552632 h 1.2719299 c 0.363325,0 0.635964,0.2726399 0.635964,0.6359648 V 5.0964916 H 1.2804434 V 3.1885968 c 0,-0.3633249 0.2726398,-0.6359648 0.6359648,-0.6359648 z M 1.2804434,6.3684213 H 11.455881 v 5.7236837 c 0,0.363326 -0.272639,0.635966 -0.635964,0.635966 H 1.9164082 c -0.363325,0 -0.6359648,-0.27264 -0.6359648,-0.635966 z"
     id="rect2"
     inkscape:connector-curvature="0" />
</svg>
